{
  "data": [
    {
      "type": "apresentacoes",
      "attributes": {
        "ean": "7892302560662",
        "titularidade": "Genérico",
        "preco_nao_definido": false,
        "tarja": "Vermelho",
        "alto_custo": false,
        "controle_especial": false,
        "descricao": "Amoxicilina 500mg",
        "fabricante": "Luper",
        "fabricante_slug": "luper",
        "preco": "46.17",
        "subtitulo": "Cápsula (2un de 6un)",
        "thumbnail": "https://dev.api.memed.com.br/resources/img/tarjas/vermelho.png",
        "tipo": "alopático",
        "titulo": "Amoxicilina 500mg",
        "highlight": {
          "titulo": "<em>Amoxicilina</em> 500mg",
          "descricao": "<em>Amoxicilina</em> 500mg"
        }
      },
      "links": {
        "self": "https://dev.api.memed.com.br/v1/apresentacoes/a524402111115300"
      },
      "relationships": {
        "fabricante": {
          "data": {
            "id": "f178",
            "type": "fabricantes"
          },
          "links": {
            "self": "https://dev.api.memed.com.br/v1/apresentacoes/relationships/fabricante"
          }
        }
      },
      "id": "a524402111115300"
    },
    {
      "type": "apresentacoes",
      "attributes": {
        "ean": "7891916963618",
        "titularidade": "Genérico",
        "preco_nao_definido": false,
        "tarja": "Vermelho",
        "alto_custo": false,
        "controle_especial": false,
        "descricao": "Amoxicilina 500mg",
        "fabricante": "Biosintética",
        "fabricante_slug": "biosintetica",
        "preco": "52.79",
        "subtitulo": "Cápsula (15un)",
        "thumbnail": "https://dev.api.memed.com.br/resources/img/tarjas/vermelho.png",
        "tipo": "alopático",
        "titulo": "Amoxicilina 500mg",
        "highlight": {
          "titulo": "<em>Amoxicilina</em> 500mg",
          "descricao": "<em>Amoxicilina</em> 500mg"
        }
      },
      "links": {
        "self": "https://dev.api.memed.com.br/v1/apresentacoes/a521402110113126"
      },
      "relationships": {
        "fabricante": {
          "data": {
            "id": "f371",
            "type": "fabricantes"
          },
          "links": {
            "self": "https://dev.api.memed.com.br/v1/apresentacoes/relationships/fabricante"
          }
        }
      },
      "id": "a521402110113126"
    },
    {
      "type": "apresentacoes",
      "attributes": {
        "ean": "7894706382600",
        "titularidade": "Genérico",
        "preco_nao_definido": false,
        "tarja": "Vermelho",
        "alto_custo": false,
        "controle_especial": false,
        "descricao": "Amoxicilina 875mg",
        "fabricante": "EMS",
        "fabricante_slug": "ems",
        "preco": "36.43",
        "subtitulo": "Comprimido revestido (14un)",
        "thumbnail": "https://dev.api.memed.com.br/resources/img/tarjas/vermelho.png",
        "tipo": "alopático",
        "titulo": "Amoxicilina 875mg",
        "highlight": {
          "titulo": "<em>Amoxicilina</em> 875mg",
          "descricao": "<em>Amoxicilina</em> 875mg"
        }
      },
      "links": {
        "self": "https://dev.api.memed.com.br/v1/apresentacoes/a507807112118701"
      },
      "relationships": {
        "fabricante": {
          "data": {
            "id": "f761",
            "type": "fabricantes"
          },
          "links": {
            "self": "https://dev.api.memed.com.br/v1/apresentacoes/relationships/fabricante"
          }
        }
      },
      "id": "a507807112118701"
    },
    {
      "type": "apresentacoes",
      "attributes": {
        "ean": "7898361880569",
        "titularidade": "Genérico",
        "preco_nao_definido": false,
        "tarja": "Vermelho",
        "alto_custo": false,
        "controle_especial": false,
        "descricao": "Amoxicilina 50mg/mL",
        "fabricante": "Aurobindo",
        "fabricante_slug": "aurobindo",
        "preco": "19",
        "subtitulo": "Pó para suspensão oral (1un de 150mL)",
        "thumbnail": "https://dev.api.memed.com.br/resources/img/tarjas/vermelho.png",
        "tipo": "alopático",
        "titulo": "Amoxicilina 50mg/mL",
        "highlight": {
          "titulo": "<em>Amoxicilina</em> 50mg/mL",
          "descricao": "<em>Amoxicilina</em> 50mg/mL"
        }
      },
      "links": {
        "self": "https://dev.api.memed.com.br/v1/apresentacoes/a500506134114102"
      },
      "relationships": {
        "fabricante": {
          "data": {
            "id": "f21",
            "type": "fabricantes"
          },
          "links": {
            "self": "https://dev.api.memed.com.br/v1/apresentacoes/relationships/fabricante"
          }
        }
      },
      "id": "a500506134114102"
    },
    {
      "type": "apresentacoes",
      "attributes": {
        "ean": "7898298853814",
        "titularidade": "Genérico",
        "preco_nao_definido": false,
        "tarja": "Vermelho",
        "alto_custo": false,
        "controle_especial": false,
        "descricao": "Amoxicilina 100mg/mL",
        "fabricante": "Prati Donaduzzi",
        "fabricante_slug": "prati-donaduzzi",
        "preco": "26.71",
        "subtitulo": "Suspensão oral (150mL)",
        "thumbnail": "https://dev.api.memed.com.br/resources/img/tarjas/vermelho.png",
        "tipo": "alopático",
        "titulo": "Amoxicilina 100mg/mL",
        "highlight": {
          "titulo": "<em>Amoxicilina</em> 100mg/mL",
          "descricao": "<em>Amoxicilina</em> 100mg/mL"
        }
      },
      "links": {
        "self": "https://dev.api.memed.com.br/v1/apresentacoes/a528601131110528"
      },
      "relationships": {
        "fabricante": {
          "data": {
            "id": "f182",
            "type": "fabricantes"
          },
          "links": {
            "self": "https://dev.api.memed.com.br/v1/apresentacoes/relationships/fabricante"
          }
        }
      },
      "id": "a528601131110528"
    },
    {
      "type": "apresentacoes",
      "attributes": {
        "ean": "7892504140642",
        "titularidade": "Genérico",
        "preco_nao_definido": false,
        "tarja": "Vermelho",
        "alto_custo": false,
        "controle_especial": false,
        "descricao": "Amoxicilina 125mg/5mL",
        "fabricante": "Medley",
        "fabricante_slug": "medley",
        "preco": "20.15",
        "subtitulo": "Suspensão oral (150mL)",
        "thumbnail": "https://dev.api.memed.com.br/resources/img/tarjas/vermelho.png",
        "tipo": "alopático",
        "titulo": "Amoxicilina 125mg/5mL",
        "highlight": {
          "titulo": "<em>Amoxicilina</em> 125mg/5mL",
          "descricao": "<em>Amoxicilina</em> 125mg/5mL"
        }
      },
      "links": {
        "self": "https://dev.api.memed.com.br/v1/apresentacoes/a525601133115000"
      },
      "relationships": {
        "fabricante": {
          "data": {
            "id": "f94",
            "type": "fabricantes"
          },
          "links": {
            "self": "https://dev.api.memed.com.br/v1/apresentacoes/relationships/fabricante"
          }
        }
      },
      "id": "a525601133115000"
    },
    {
      "type": "apresentacoes",
      "attributes": {
        "ean": "7892504176647",
        "titularidade": "Genérico",
        "preco_nao_definido": false,
        "tarja": "Vermelho",
        "alto_custo": false,
        "controle_especial": false,
        "descricao": "Amoxicilina 250mg/5mL",
        "fabricante": "Multilab",
        "fabricante_slug": "multilab",
        "preco": "12.52",
        "subtitulo": "Suspensão oral (1un de 3g)",
        "thumbnail": "https://dev.api.memed.com.br/resources/img/tarjas/vermelho.png",
        "tipo": "alopático",
        "titulo": "Amoxicilina 250mg/5mL",
        "highlight": {
          "titulo": "<em>Amoxicilina</em> 250mg/5mL",
          "descricao": "<em>Amoxicilina</em> 250mg/5mL"
        }
      },
      "links": {
        "self": "https://dev.api.memed.com.br/v1/apresentacoes/a525050015606912"
      },
      "relationships": {
        "fabricante": {
          "data": {
            "id": "f20",
            "type": "fabricantes"
          },
          "links": {
            "self": "https://dev.api.memed.com.br/v1/apresentacoes/relationships/fabricante"
          }
        }
      },
      "id": "a525050015606912"
    }
  ],
  "links": {
    "next": "https://dev.api.memed.com.br/v1/apresentacoes?filter[categoria]=industrializados&filter[q]=amoxicilina&filter[origem]=Catalogo&token=eyJ0eXAiOiJKV1QiLCJhbGciOiJIUzI1NiJ9.WyI3NDUiLCI4NTg5MTBkZGNmMTE0YTgxOWQ5NTk4YmMyYjc3NzljNCIsIjIwMTYtMDYtMDYiLCJwbGF0YWZvcm1hIl0.l4fPP7N7wVhAVgPptDab94z8VfRgurSiDsnXh3Srzw8&_=1466179954339&page[offset]=100",
    "last": "https://dev.api.memed.com.br/v1/apresentacoes?filter[categoria]=industrializados&filter[q]=amoxicilina&filter[origem]=Catalogo&token=eyJ0eXAiOiJKV1QiLCJhbGciOiJIUzI1NiJ9.WyI3NDUiLCI4NTg5MTBkZGNmMTE0YTgxOWQ5NTk4YmMyYjc3NzljNCIsIjIwMTYtMDYtMDYiLCJwbGF0YWZvcm1hIl0.l4fPP7N7wVhAVgPptDab94z8VfRgurSiDsnXh3Srzw8&_=1466179954339&page[offset]=214",
    "self": "https://dev.api.memed.com.br/apresentacoes"
  },
  "meta": {
    "total": 314,
    "limit": 100
  }
}
